\relax 
\@writefile{toc}{\contentsline {section}{\numberline {1}Introduction}{1}}
\@writefile{toc}{\contentsline {section}{\numberline {2}Architecture and implementation}{1}}
\@writefile{toc}{\contentsline {subsection}{\numberline {2.1}Peer Sampling Service}{1}}
\newlabel{alg:agg}{{1}{2}}
\@writefile{loa}{\contentsline {algocf}{\numberline {1}{\ignorespaces Data structures}}{2}}
\@writefile{toc}{\contentsline {subsubsection}{\numberline {2.1.1}Backup view}{2}}
\@writefile{toc}{\contentsline {subsubsection}{\numberline {2.1.2}Multiple data centers}{2}}
\@writefile{toc}{\contentsline {subsection}{\numberline {2.2}Broadcast Tree}{3}}
\newlabel{alg:agg}{{2}{4}}
\@writefile{loa}{\contentsline {algocf}{\numberline {2}{\ignorespaces Neighbor handlers}}{4}}
\@writefile{toc}{\contentsline {subsubsection}{\numberline {2.2.1}Local broadcast}{4}}
\newlabel{alg:agg}{{3}{5}}
\@writefile{loa}{\contentsline {algocf}{\numberline {3}{\ignorespaces Thicket changes}}{5}}
\@writefile{toc}{\contentsline {subsection}{\numberline {2.3}Edge Service}{5}}
\newlabel{alg:agg}{{4}{6}}
\@writefile{loa}{\contentsline {algocf}{\numberline {4}{\ignorespaces Data structures}}{6}}
\@writefile{toc}{\contentsline {subsubsection}{\numberline {2.3.1}Join Mechanism}{6}}
\@writefile{toc}{\contentsline {subsubsection}{\numberline {2.3.2}Dissemination}{6}}
\newlabel{alg:agg}{{5}{7}}
\@writefile{loa}{\contentsline {algocf}{\numberline {5}{\ignorespaces Edge operations}}{7}}
\@writefile{toc}{\contentsline {section}{\numberline {3}API}{8}}
\@writefile{toc}{\contentsline {section}{\numberline {4}Client-Server example}{9}}
\@writefile{toc}{\contentsline {subsection}{\numberline {4.1}Architecture}{9}}
\@writefile{toc}{\contentsline {subsection}{\numberline {4.2}API usage}{9}}
\@writefile{toc}{\contentsline {subsection}{\numberline {4.3}Discussion}{10}}
