\relax 
\providecommand\hyper@newdestlabel[2]{}
\providecommand*{\memsetcounter}[2]{}
\catcode `"\active 
\providecommand\HyperFirstAtBeginDocument{\AtBeginDocument}
\HyperFirstAtBeginDocument{\ifx\hyper@anchor\@undefined
\global\let\oldcontentsline\contentsline
\gdef\contentsline#1#2#3#4{\oldcontentsline{#1}{#2}{#3}}
\global\let\oldnewlabel\newlabel
\gdef\newlabel#1#2{\newlabelxx{#1}#2}
\gdef\newlabelxx#1#2#3#4#5#6{\oldnewlabel{#1}{{#2}{#3}}}
\AtEndDocument{\ifx\hyper@anchor\@undefined
\let\contentsline\oldcontentsline
\let\newlabel\oldnewlabel
\fi}
\fi}
\global\let\hyper@last\relax 
\gdef\HyperFirstAtBeginDocument#1{#1}
\providecommand\HyField@AuxAddToFields[1]{}
\providecommand\HyField@AuxAddToCoFields[2]{}
\bibstyle{biblatex}
\bibdata{template-blx,bibliography}
\citation{biblatex-control}
\abx@aux@refcontext{nyt/global//global/global}
\providecommand\@newglossary[4]{}
\@newglossary{main}{glg}{gls}{glo}
\@newglossary{acronym}{alg}{acr}{acn}
\providecommand \oddpage@label [2]{}
\@gls@reference{acronym}{abbrev}{\glsnoidxdisplayloc{}{page}{glsnumberformat}{1}}
\@gls@reference{acronym}{aaa}{\glsnoidxdisplayloc{}{page}{glsnumberformat}{1}}
\@gls@reference{acronym}{aab}{\glsnoidxdisplayloc{}{page}{glsnumberformat}{1}}
\@gls@reference{acronym}{aba}{\glsnoidxdisplayloc{}{page}{glsnumberformat}{1}}
\@gls@reference{acronym}{bbb}{\glsnoidxdisplayloc{}{page}{glsnumberformat}{1}}
\@gls@reference{acronym}{xpt}{\glsnoidxdisplayloc{}{page}{glsnumberformat}{1}}
\@gls@reference{acronym}{lid}{\glsnoidxdisplayloc{}{page}{glsnumberformat}{1}}
\@gls@reference{acronym}{stc}{\glsnoidxdisplayloc{}{page}{glsnumberformat}{1}}
\@gls@reference{acronym}{aeu}{\glsnoidxdisplayloc{}{page}{glsnumberformat}{1}}
\@gls@reference{acronym}{pev}{\glsnoidxdisplayloc{}{page}{glsnumberformat}{1}}
\@gls@reference{acronym}{upa}{\glsnoidxdisplayloc{}{page}{glsnumberformat}{1}}
\@gls@reference{acronym}{avf}{\glsnoidxdisplayloc{}{page}{glsnumberformat}{1}}
\@gls@reference{acronym}{cdg}{\glsnoidxdisplayloc{}{page}{glsnumberformat}{1}}
\@gls@reference{acronym}{mna}{\glsnoidxdisplayloc{}{page}{glsnumberformat}{1}}
\@gls@reference{acronym}{lne}{\glsnoidxdisplayloc{}{page}{glsnumberformat}{1}}
\@gls@reference{acronym}{civ}{\glsnoidxdisplayloc{}{page}{glsnumberformat}{1}}
\@gls@reference{acronym}{amd}{\glsnoidxdisplayloc{}{page}{glsnumberformat}{1}}
\@gls@reference{acronym}{vae}{\glsnoidxdisplayloc{}{page}{glsnumberformat}{1}}
\@gls@reference{acronym}{nph}{\glsnoidxdisplayloc{}{page}{glsnumberformat}{1}}
\@gls@reference{acronym}{mts}{\glsnoidxdisplayloc{}{page}{glsnumberformat}{1}}
\@gls@reference{acronym}{ene}{\glsnoidxdisplayloc{}{page}{glsnumberformat}{1}}
\@gls@reference{acronym}{mfa}{\glsnoidxdisplayloc{}{page}{glsnumberformat}{1}}
\@gls@reference{acronym}{tem}{\glsnoidxdisplayloc{}{page}{glsnumberformat}{1}}
\@gls@reference{acronym}{ulc}{\glsnoidxdisplayloc{}{page}{glsnumberformat}{1}}
\@gls@reference{acronym}{vmr}{\glsnoidxdisplayloc{}{page}{glsnumberformat}{1}}
\@gls@reference{acronym}{sne}{\glsnoidxdisplayloc{}{page}{glsnumberformat}{1}}
\@gls@reference{acronym}{lvu}{\glsnoidxdisplayloc{}{page}{glsnumberformat}{1}}
\@gls@reference{acronym}{fup}{\glsnoidxdisplayloc{}{page}{glsnumberformat}{1}}
\@gls@reference{acronym}{ets}{\glsnoidxdisplayloc{}{page}{glsnumberformat}{1}}
\@gls@reference{acronym}{atg}{\glsnoidxdisplayloc{}{page}{glsnumberformat}{1}}
\@gls@reference{acronym}{pis}{\glsnoidxdisplayloc{}{page}{glsnumberformat}{1}}
\@gls@reference{acronym}{eii}{\glsnoidxdisplayloc{}{page}{glsnumberformat}{1}}
\@gls@reference{acronym}{pqv}{\glsnoidxdisplayloc{}{page}{glsnumberformat}{1}}
\@gls@reference{acronym}{anp}{\glsnoidxdisplayloc{}{page}{glsnumberformat}{1}}
\@gls@reference{acronym}{esv}{\glsnoidxdisplayloc{}{page}{glsnumberformat}{1}}
\@gls@reference{acronym}{lub}{\glsnoidxdisplayloc{}{page}{glsnumberformat}{1}}
\@gls@reference{acronym}{afm}{\glsnoidxdisplayloc{}{page}{glsnumberformat}{1}}
\@gls@reference{acronym}{dnm}{\glsnoidxdisplayloc{}{page}{glsnumberformat}{1}}
\@gls@reference{acronym}{epa}{\glsnoidxdisplayloc{}{page}{glsnumberformat}{1}}
\@gls@reference{acronym}{man}{\glsnoidxdisplayloc{}{page}{glsnumberformat}{1}}
\@gls@reference{acronym}{cas}{\glsnoidxdisplayloc{}{page}{glsnumberformat}{1}}
\@gls@reference{acronym}{ndv}{\glsnoidxdisplayloc{}{page}{glsnumberformat}{1}}
\@gls@reference{acronym}{oer}{\glsnoidxdisplayloc{}{page}{glsnumberformat}{1}}
\@gls@reference{acronym}{dnmc}{\glsnoidxdisplayloc{}{page}{glsnumberformat}{1}}
\@gls@reference{acronym}{cea}{\glsnoidxdisplayloc{}{page}{glsnumberformat}{1}}
\@gls@reference{acronym}{esq}{\glsnoidxdisplayloc{}{page}{glsnumberformat}{1}}
\@gls@reference{acronym}{dia}{\glsnoidxdisplayloc{}{page}{glsnumberformat}{1}}
\@gls@reference{acronym}{sao}{\glsnoidxdisplayloc{}{page}{glsnumberformat}{1}}
\@gls@reference{acronym}{drn}{\glsnoidxdisplayloc{}{page}{glsnumberformat}{1}}
\@writefile{toc}{\boolfalse {citerequest}\boolfalse {citetracker}\boolfalse {pagetracker}\boolfalse {backtracker}\relax }
\@writefile{lof}{\boolfalse {citerequest}\boolfalse {citetracker}\boolfalse {pagetracker}\boolfalse {backtracker}\relax }
\@writefile{lot}{\boolfalse {citerequest}\boolfalse {citetracker}\boolfalse {pagetracker}\boolfalse {backtracker}\relax }
\babel@aux{english}{}
\providecommand\@gls@reference[3]{}
\babel@aux{english}{}
\babel@aux{portuguese}{}
\babel@aux{english}{}
\babel@aux{portuguese}{}
\babel@aux{english}{}
\babel@aux{english}{}
\babel@aux{english}{}
\babel@aux{english}{}
\babel@aux{english}{}
\babel@aux{portuguese}{}
\babel@aux{english}{}
\babel@aux{portuguese}{}
\babel@aux{english}{}
\@writefile{lof}{\defcounter {refsection}{0}\relax }\@writefile{lof}{\addvspace {10pt}}
\@writefile{lot}{\defcounter {refsection}{0}\relax }\@writefile{lot}{\addvspace {10pt}}
\@writefile{toc}{\defcounter {refsection}{0}\relax }\@writefile{toc}{\contentsline {chapter}{\chapternumberline {1}Introduction}{1}{chapter.1}}
\@writefile{loa}{\defcounter {refsection}{0}\relax }\@writefile{loa}{\addvspace {10\p@ }}
\newlabel{cha:introduction}{{\M@TitleReference {1}{Introduction}}{1}{Introduction}{chapter.1}{}}
\@writefile{toc}{\defcounter {refsection}{0}\relax }\@writefile{toc}{\contentsline {section}{\numberline {1.1}Context}{1}{section.1.1}}
\citation{Ganesh:2001:SPL:648089.747488}
\abx@aux@cite{Ganesh:2001:SPL:648089.747488}
\abx@aux@segm{0}{0}{Ganesh:2001:SPL:648089.747488}
\citation{Leitao:HPV}
\abx@aux@cite{Leitao:HPV}
\abx@aux@segm{0}{0}{Leitao:HPV}
\@writefile{toc}{\defcounter {refsection}{0}\relax }\@writefile{toc}{\contentsline {section}{\numberline {1.2}Motivation}{2}{section.1.2}}
\@writefile{toc}{\defcounter {refsection}{0}\relax }\@writefile{toc}{\contentsline {section}{\numberline {1.3}Contributions}{3}{section.1.3}}
\@writefile{toc}{\defcounter {refsection}{0}\relax }\@writefile{toc}{\contentsline {section}{\numberline {1.4}Document organization}{4}{section.1.4}}
\@writefile{lof}{\defcounter {refsection}{0}\relax }\@writefile{lof}{\addvspace {10pt}}
\@writefile{lot}{\defcounter {refsection}{0}\relax }\@writefile{lot}{\addvspace {10pt}}
\@writefile{toc}{\defcounter {refsection}{0}\relax }\@writefile{toc}{\contentsline {chapter}{\chapternumberline {2}Related Work}{5}{chapter.2}}
\@writefile{loa}{\defcounter {refsection}{0}\relax }\@writefile{loa}{\addvspace {10\p@ }}
\newlabel{cha:relatedwork}{{\M@TitleReference {2}{Related Work}}{5}{Related Work}{chapter.2}{}}
\@writefile{toc}{\defcounter {refsection}{0}\relax }\@writefile{toc}{\contentsline {section}{\numberline {2.1}Nodes and peers}{5}{section.2.1}}
\@writefile{toc}{\defcounter {refsection}{0}\relax }\@writefile{toc}{\contentsline {section}{\numberline {2.2}Edge-Computing}{5}{section.2.2}}
\citation{Edge}
\abx@aux@cite{Edge}
\abx@aux@segm{0}{0}{Edge}
\citation{DAH}
\abx@aux@cite{DAH}
\abx@aux@segm{0}{0}{DAH}
\@writefile{toc}{\defcounter {refsection}{0}\relax }\@writefile{toc}{\contentsline {section}{\numberline {2.3}Membership}{6}{section.2.3}}
\@writefile{toc}{\defcounter {refsection}{0}\relax }\@writefile{toc}{\contentsline {subsection}{\numberline {2.3.1}Partial views}{7}{subsection.2.3.1}}
\citation{Kermarrec:2007:GDS:1317379.1317381}
\abx@aux@cite{Kermarrec:2007:GDS:1317379.1317381}
\abx@aux@segm{0}{0}{Kermarrec:2007:GDS:1317379.1317381}
\citation{Eugster:2003:LPB:945506.945507}
\abx@aux@cite{Eugster:2003:LPB:945506.945507}
\abx@aux@segm{0}{0}{Eugster:2003:LPB:945506.945507}
\@writefile{toc}{\defcounter {refsection}{0}\relax }\@writefile{toc}{\contentsline {section}{\numberline {2.4}Gossip-based protocols}{8}{section.2.4}}
\citation{Leitao:TESE}
\abx@aux@cite{Leitao:TESE}
\abx@aux@segm{0}{0}{Leitao:TESE}
\citation{Castro}
\abx@aux@cite{Castro}
\abx@aux@segm{0}{0}{Castro}
\citation{Qiao}
\abx@aux@cite{Qiao}
\abx@aux@segm{0}{0}{Qiao}
\@writefile{toc}{\defcounter {refsection}{0}\relax }\@writefile{toc}{\contentsline {subsection}{\numberline {2.4.1}Strategies}{9}{subsection.2.4.1}}
\@writefile{toc}{\defcounter {refsection}{0}\relax }\@writefile{toc}{\contentsline {paragraph}{Eager push:}{9}{section*.4}}
\@writefile{toc}{\defcounter {refsection}{0}\relax }\@writefile{toc}{\contentsline {paragraph}{Pull:}{9}{section*.5}}
\@writefile{toc}{\defcounter {refsection}{0}\relax }\@writefile{toc}{\contentsline {paragraph}{Lazy push:}{9}{section*.6}}
\@writefile{toc}{\defcounter {refsection}{0}\relax }\@writefile{toc}{\contentsline {paragraph}{Hybrid:}{9}{section*.7}}
\@writefile{toc}{\defcounter {refsection}{0}\relax }\@writefile{toc}{\contentsline {section}{\numberline {2.5}Overlay Network}{9}{section.2.5}}
\citation{Gribble:2000:SDD:1251229.1251251}
\abx@aux@cite{Gribble:2000:SDD:1251229.1251251}
\abx@aux@segm{0}{0}{Gribble:2000:SDD:1251229.1251251}
\citation{Karger:1997:CHR:258533.258660}
\abx@aux@cite{Karger:1997:CHR:258533.258660}
\abx@aux@segm{0}{0}{Karger:1997:CHR:258533.258660}
\@writefile{toc}{\defcounter {refsection}{0}\relax }\@writefile{toc}{\contentsline {subsection}{\numberline {2.5.1}Structured Overlays}{10}{subsection.2.5.1}}
\@writefile{toc}{\defcounter {refsection}{0}\relax }\@writefile{toc}{\contentsline {subsubsection}{\numberline {2.5.1.1}Distributed Hash Table (DHT)}{10}{subsubsection.2.5.1.1}}
\@writefile{toc}{\defcounter {refsection}{0}\relax }\@writefile{toc}{\contentsline {subsubsection}{\numberline {2.5.1.2}Chord}{10}{subsubsection.2.5.1.2}}
\@writefile{toc}{\defcounter {refsection}{0}\relax }\@writefile{toc}{\contentsline {subsubsection}{\numberline {2.5.1.3}Pastry}{11}{subsubsection.2.5.1.3}}
\@writefile{toc}{\defcounter {refsection}{0}\relax }\@writefile{toc}{\contentsline {subsection}{\numberline {2.5.2}Unstructured Overlays}{11}{subsection.2.5.2}}
\citation{Ganesh:2001:SPL:648089.747488}
\abx@aux@segm{0}{0}{Ganesh:2001:SPL:648089.747488}
\citation{CYCLON}
\abx@aux@cite{CYCLON}
\abx@aux@segm{0}{0}{CYCLON}
\citation{1258111}
\abx@aux@cite{1258111}
\abx@aux@segm{0}{0}{1258111}
\@writefile{toc}{\defcounter {refsection}{0}\relax }\@writefile{toc}{\contentsline {subsubsection}{\numberline {2.5.2.1}SCAMP}{12}{subsubsection.2.5.2.1}}
\@writefile{toc}{\defcounter {refsection}{0}\relax }\@writefile{toc}{\contentsline {subsubsection}{\numberline {2.5.2.2}Cyclon}{12}{subsubsection.2.5.2.2}}
\citation{Leitao:HPV}
\abx@aux@segm{0}{0}{Leitao:HPV}
\@writefile{toc}{\defcounter {refsection}{0}\relax }\@writefile{toc}{\contentsline {subsubsection}{\numberline {2.5.2.3}HyParView}{13}{subsubsection.2.5.2.3}}
\citation{SWIM}
\abx@aux@cite{SWIM}
\abx@aux@segm{0}{0}{SWIM}
\citation{Gupta}
\abx@aux@cite{Gupta}
\abx@aux@segm{0}{0}{Gupta}
\@writefile{toc}{\defcounter {refsection}{0}\relax }\@writefile{toc}{\contentsline {subsubsection}{\numberline {2.5.2.4}SWIM}{14}{subsubsection.2.5.2.4}}
\@writefile{toc}{\defcounter {refsection}{0}\relax }\@writefile{toc}{\contentsline {subsection}{\numberline {2.5.3}Partial Structured overlays}{14}{subsection.2.5.3}}
\citation{LCP+10}
\abx@aux@cite{LCP+10}
\abx@aux@segm{0}{0}{LCP+10}
\citation{Jelasity:2009:TGF:1570533.1570626}
\abx@aux@cite{Jelasity:2009:TGF:1570533.1570626}
\abx@aux@segm{0}{0}{Jelasity:2009:TGF:1570533.1570626}
\citation{Leitao:XBOT}
\abx@aux@cite{Leitao:XBOT}
\abx@aux@segm{0}{0}{Leitao:XBOT}
\@writefile{toc}{\defcounter {refsection}{0}\relax }\@writefile{toc}{\contentsline {subsubsection}{\numberline {2.5.3.1}T-MAN}{15}{subsubsection.2.5.3.1}}
\@writefile{toc}{\defcounter {refsection}{0}\relax }\@writefile{toc}{\contentsline {subsubsection}{\numberline {2.5.3.2}X-BOT}{15}{subsubsection.2.5.3.2}}
\citation{Leitao:PLUMTREE}
\abx@aux@cite{Leitao:PLUMTREE}
\abx@aux@segm{0}{0}{Leitao:PLUMTREE}
\citation{Thicket}
\abx@aux@cite{Thicket}
\abx@aux@segm{0}{0}{Thicket}
\@writefile{toc}{\defcounter {refsection}{0}\relax }\@writefile{toc}{\contentsline {subsubsection}{\numberline {2.5.3.3}PlumTree}{16}{subsubsection.2.5.3.3}}
\@writefile{toc}{\defcounter {refsection}{0}\relax }\@writefile{toc}{\contentsline {subsubsection}{\numberline {2.5.3.4}Thicket}{16}{subsubsection.2.5.3.4}}
\citation{Leitao:HPV}
\abx@aux@segm{0}{0}{Leitao:HPV}
\citation{Leitao:XBOT}
\abx@aux@segm{0}{0}{Leitao:XBOT}
\@writefile{toc}{\defcounter {refsection}{0}\relax }\@writefile{toc}{\contentsline {subsection}{\numberline {2.5.4}Comparation metrics}{17}{subsection.2.5.4}}
\@writefile{toc}{\defcounter {refsection}{0}\relax }\@writefile{toc}{\contentsline {paragraph}{Connectivity:}{17}{section*.8}}
\@writefile{toc}{\defcounter {refsection}{0}\relax }\@writefile{toc}{\contentsline {paragraph}{Degree distribution:}{17}{section*.9}}
\citation{Chandra}
\abx@aux@cite{Chandra}
\abx@aux@segm{0}{0}{Chandra}
\@writefile{toc}{\defcounter {refsection}{0}\relax }\@writefile{toc}{\contentsline {paragraph}{Average Path Length:}{18}{section*.10}}
\@writefile{toc}{\defcounter {refsection}{0}\relax }\@writefile{toc}{\contentsline {paragraph}{Clustering Coefficient:}{18}{section*.11}}
\@writefile{toc}{\defcounter {refsection}{0}\relax }\@writefile{toc}{\contentsline {paragraph}{Overlay Cost:}{18}{section*.12}}
\@writefile{toc}{\defcounter {refsection}{0}\relax }\@writefile{toc}{\contentsline {paragraph}{Accuracy:}{18}{section*.13}}
\@writefile{toc}{\defcounter {refsection}{0}\relax }\@writefile{toc}{\contentsline {paragraph}{Reliability:}{18}{section*.14}}
\@writefile{toc}{\defcounter {refsection}{0}\relax }\@writefile{toc}{\contentsline {paragraph}{Redundancy:}{18}{section*.15}}
\@writefile{toc}{\defcounter {refsection}{0}\relax }\@writefile{toc}{\contentsline {section}{\numberline {2.6}Failure detection}{18}{section.2.6}}
\citation{FailureDetectors}
\abx@aux@cite{FailureDetectors}
\abx@aux@segm{0}{0}{FailureDetectors}
\citation{Aguilera97heartbeat:a}
\abx@aux@cite{Aguilera97heartbeat:a}
\abx@aux@segm{0}{0}{Aguilera97heartbeat:a}
\citation{Gupta}
\abx@aux@segm{0}{0}{Gupta}
\citation{SWIM}
\abx@aux@segm{0}{0}{SWIM}
\@writefile{toc}{\defcounter {refsection}{0}\relax }\@writefile{toc}{\contentsline {paragraph}{Completeness}{19}{section*.16}}
\@writefile{toc}{\defcounter {refsection}{0}\relax }\@writefile{toc}{\contentsline {paragraph}{Accuracy}{19}{section*.17}}
\@writefile{toc}{\defcounter {refsection}{0}\relax }\@writefile{toc}{\contentsline {subsection}{\numberline {2.6.1}Models}{19}{subsection.2.6.1}}
\@writefile{toc}{\defcounter {refsection}{0}\relax }\@writefile{toc}{\contentsline {paragraph}{Push}{19}{section*.18}}
\@writefile{toc}{\defcounter {refsection}{0}\relax }\@writefile{toc}{\contentsline {paragraph}{Pull}{19}{section*.19}}
\@writefile{toc}{\defcounter {refsection}{0}\relax }\@writefile{toc}{\contentsline {paragraph}{Dual}{19}{section*.20}}
\citation{WeiChen}
\abx@aux@cite{WeiChen}
\abx@aux@segm{0}{0}{WeiChen}
\citation{Jacobson}
\abx@aux@cite{Jacobson}
\abx@aux@segm{0}{0}{Jacobson}
\@writefile{toc}{\defcounter {refsection}{0}\relax }\@writefile{toc}{\contentsline {subsubsection}{\numberline {2.6.1.1}Gupta's failure detector}{20}{subsubsection.2.6.1.1}}
\@writefile{toc}{\defcounter {refsection}{0}\relax }\@writefile{toc}{\contentsline {subsection}{\numberline {2.6.2}Adaptive failure detectors}{20}{subsection.2.6.2}}
\citation{ACCRUAL}
\abx@aux@cite{ACCRUAL}
\abx@aux@segm{0}{0}{ACCRUAL}
\citation{ACCRUAL}
\abx@aux@segm{0}{0}{ACCRUAL}
\citation{ACCRUAL}
\abx@aux@segm{0}{0}{ACCRUAL}
\@writefile{toc}{\defcounter {refsection}{0}\relax }\@writefile{toc}{\contentsline {subsection}{\numberline {2.6.3}Accrual failure detection}{21}{subsection.2.6.3}}
\@writefile{toc}{\defcounter {refsection}{0}\relax }\@writefile{toc}{\contentsline {paragraph}{Asymptotic completeness:}{21}{section*.21}}
\@writefile{toc}{\defcounter {refsection}{0}\relax }\@writefile{toc}{\contentsline {paragraph}{Eventual monotony:}{21}{section*.22}}
\@writefile{toc}{\defcounter {refsection}{0}\relax }\@writefile{toc}{\contentsline {paragraph}{Upper bound:}{21}{section*.23}}
\@writefile{toc}{\defcounter {refsection}{0}\relax }\@writefile{toc}{\contentsline {paragraph}{Reset:}{21}{section*.24}}
\@writefile{toc}{\defcounter {refsection}{0}\relax }\@writefile{toc}{\contentsline {subsubsection}{\numberline {2.6.3.1}$ \varphi $ accrual failure detector}{21}{subsubsection.2.6.3.1}}
\citation{Phan}
\abx@aux@cite{Phan}
\abx@aux@segm{0}{0}{Phan}
\citation{Phan}
\abx@aux@segm{0}{0}{Phan}
\citation{CASSANDRA}
\abx@aux@cite{CASSANDRA}
\abx@aux@segm{0}{0}{CASSANDRA}
\@writefile{lof}{\defcounter {refsection}{0}\relax }\@writefile{lof}{\contentsline {figure}{\numberline {2.1}{\ignorespaces Example of execution of $ \varphi $ failure detector (taken from \cite {Phan})\relax }}{22}{figure.caption.25}}
\providecommand*\caption@xref[2]{\@setref\relax\@undefined{#1}}
\newlabel{fig:accrual}{{\M@TitleReference {2.1}{Example of execution of $ \varphi $ failure detector (taken from \cite {Phan})\relax }}{22}{Example of execution of $ \varphi $ failure detector (taken from \cite {Phan})\relax }{figure.caption.25}{}}
\@writefile{toc}{\defcounter {refsection}{0}\relax }\@writefile{toc}{\contentsline {section}{\numberline {2.7}Cassandra --- architecture and membership}{22}{section.2.7}}
\citation{Karger:1997:CHR:258533.258660}
\abx@aux@segm{0}{0}{Karger:1997:CHR:258533.258660}
\citation{Snitching}
\abx@aux@cite{Snitching}
\abx@aux@segm{0}{0}{Snitching}
\citation{Scuttlebutt}
\abx@aux@cite{Scuttlebutt}
\abx@aux@segm{0}{0}{Scuttlebutt}
\@writefile{toc}{\defcounter {refsection}{0}\relax }\@writefile{toc}{\contentsline {subsection}{\numberline {2.7.1}Architecture}{23}{subsection.2.7.1}}
\@writefile{toc}{\defcounter {refsection}{0}\relax }\@writefile{toc}{\contentsline {subsubsection}{\numberline {2.7.1.1}Partitioning and Replication}{23}{subsubsection.2.7.1.1}}
\@writefile{toc}{\defcounter {refsection}{0}\relax }\@writefile{toc}{\contentsline {subsection}{\numberline {2.7.2}Membership}{23}{subsection.2.7.2}}
\citation{ACCRUAL}
\abx@aux@segm{0}{0}{ACCRUAL}
\citation{Relay}
\abx@aux@cite{Relay}
\abx@aux@segm{0}{0}{Relay}
\citation{Relay}
\abx@aux@segm{0}{0}{Relay}
\citation{Leitao:BALANCING}
\abx@aux@cite{Leitao:BALANCING}
\abx@aux@segm{0}{0}{Leitao:BALANCING}
\@writefile{toc}{\defcounter {refsection}{0}\relax }\@writefile{toc}{\contentsline {section}{\numberline {2.8}NAT and firewall-aware Membership}{24}{section.2.8}}
\@writefile{toc}{\defcounter {refsection}{0}\relax }\@writefile{toc}{\contentsline {subsection}{\numberline {2.8.1}Relaying}{24}{subsection.2.8.1}}
\@writefile{lof}{\defcounter {refsection}{0}\relax }\@writefile{lof}{\contentsline {figure}{\numberline {2.2}{\ignorespaces Relaying technique. Every message to be exchanged between the two peers will be firstly sent to the public relay node, which will forward it to the destination. If one of those nodes is public, the communication is even simpler, as any packets destinated to it will not be analyzed by either firewall or NAT devices.\relax }}{25}{figure.caption.26}}
\newlabel{fig:relay}{{\M@TitleReference {2.2}{Relaying technique. Every message to be exchanged between the two peers will be firstly sent to the public relay node, which will forward it to the destination. If one of those nodes is public, the communication is even simpler, as any packets destinated to it will not be analyzed by either firewall or NAT devices.\relax }}{25}{Relaying technique. Every message to be exchanged between the two peers will be firstly sent to the public relay node, which will forward it to the destination. If one of those nodes is public, the communication is even simpler, as any packets destinated to it will not be analyzed by either firewall or NAT devices.\relax }{figure.caption.26}{}}
\@writefile{lof}{\defcounter {refsection}{0}\relax }\@writefile{lof}{\contentsline {figure}{\numberline {2.3}{\ignorespaces Hole-punching technique. The source peer first pings the destination and then sends a request through the public rendezvous node. When receiving the request, the destination node sends a \textit  {pong} message, also creating a new filtering rule that allows messages from that source peer \cite {Relay}. Afterwards, the peers are able to communicate directly.\relax }}{25}{figure.caption.27}}
\newlabel{fig:hole}{{\M@TitleReference {2.3}{Hole-punching technique. The source peer first pings the destination and then sends a request through the public rendezvous node. When receiving the request, the destination node sends a \textit  {pong} message, also creating a new filtering rule that allows messages from that source peer \cite {Relay}. Afterwards, the peers are able to communicate directly.\relax }}{25}{Hole-punching technique. The source peer first pings the destination and then sends a request through the public rendezvous node. When receiving the request, the destination node sends a \textit {pong} message, also creating a new filtering rule that allows messages from that source peer \cite {Relay}. Afterwards, the peers are able to communicate directly.\relax }{figure.caption.27}{}}
\citation{CROUPIER}
\abx@aux@cite{CROUPIER}
\abx@aux@segm{0}{0}{CROUPIER}
\@writefile{toc}{\defcounter {refsection}{0}\relax }\@writefile{toc}{\contentsline {subsection}{\numberline {2.8.2}Non-relaying}{26}{subsection.2.8.2}}
\@writefile{toc}{\defcounter {refsection}{0}\relax }\@writefile{toc}{\contentsline {section}{\numberline {2.9}Existing solutions}{26}{section.2.9}}
\citation{GOSSIP20}
\abx@aux@cite{GOSSIP20}
\abx@aux@segm{0}{0}{GOSSIP20}
\citation{Brown}
\abx@aux@cite{Brown}
\abx@aux@segm{0}{0}{Brown}
\citation{Brown:TREE}
\abx@aux@cite{Brown:TREE}
\abx@aux@segm{0}{0}{Brown:TREE}
\citation{Thicket}
\abx@aux@segm{0}{0}{Thicket}
\@writefile{toc}{\defcounter {refsection}{0}\relax }\@writefile{toc}{\contentsline {subsection}{\numberline {2.9.1}Cassandra - Gossip 2.0}{27}{subsection.2.9.1}}
\citation{Partisan}
\abx@aux@cite{Partisan}
\abx@aux@segm{0}{0}{Partisan}
\citation{SERF}
\abx@aux@cite{SERF}
\abx@aux@segm{0}{0}{SERF}
\citation{HASHICORP}
\abx@aux@cite{HASHICORP}
\abx@aux@segm{0}{0}{HASHICORP}
\citation{CONSUL}
\abx@aux@cite{CONSUL}
\abx@aux@segm{0}{0}{CONSUL}
\@writefile{toc}{\defcounter {refsection}{0}\relax }\@writefile{toc}{\contentsline {subsection}{\numberline {2.9.2}Partisan}{28}{subsection.2.9.2}}
\citation{LIFEGUARD}
\abx@aux@cite{LIFEGUARD}
\abx@aux@segm{0}{0}{LIFEGUARD}
\@writefile{toc}{\defcounter {refsection}{0}\relax }\@writefile{toc}{\contentsline {subsection}{\numberline {2.9.3}Serf}{29}{subsection.2.9.3}}
\@writefile{toc}{\defcounter {refsection}{0}\relax }\@writefile{toc}{\contentsline {paragraph}{Full state sync}{29}{section*.28}}
\@writefile{toc}{\defcounter {refsection}{0}\relax }\@writefile{toc}{\contentsline {paragraph}{Dedicated gossip layer}{29}{section*.29}}
\@writefile{toc}{\defcounter {refsection}{0}\relax }\@writefile{toc}{\contentsline {paragraph}{Keeping the state of dead nodes}{29}{section*.30}}
\@writefile{toc}{\defcounter {refsection}{0}\relax }\@writefile{toc}{\contentsline {paragraph}{Local health}{30}{section*.31}}
\@writefile{toc}{\defcounter {refsection}{0}\relax }\@writefile{toc}{\contentsline {section}{\numberline {2.10}Summary}{30}{section.2.10}}
\@writefile{lof}{\defcounter {refsection}{0}\relax }\@writefile{lof}{\addvspace {10pt}}
\@writefile{lot}{\defcounter {refsection}{0}\relax }\@writefile{lot}{\addvspace {10pt}}
\@writefile{toc}{\defcounter {refsection}{0}\relax }\@writefile{toc}{\contentsline {chapter}{\chapternumberline {3}Membership Service}{31}{chapter.3}}
\@writefile{loa}{\defcounter {refsection}{0}\relax }\@writefile{loa}{\addvspace {10\p@ }}
\newlabel{cha:membership}{{\M@TitleReference {3}{Membership Service}}{31}{Membership Service}{chapter.3}{}}
\@writefile{toc}{\defcounter {refsection}{0}\relax }\@writefile{toc}{\contentsline {section}{\numberline {3.1}Introduction}{31}{section.3.1}}
\@writefile{toc}{\defcounter {refsection}{0}\relax }\@writefile{toc}{\contentsline {section}{\numberline {3.2}System model}{31}{section.3.2}}
\@writefile{toc}{\defcounter {refsection}{0}\relax }\@writefile{toc}{\contentsline {section}{\numberline {3.3}Architecture}{31}{section.3.3}}
\@writefile{toc}{\defcounter {refsection}{0}\relax }\@writefile{toc}{\contentsline {subsection}{\numberline {3.3.1}Simplified view}{31}{subsection.3.3.1}}
\citation{Leitao:HPV}
\abx@aux@segm{0}{0}{Leitao:HPV}
\citation{ACCRUAL}
\abx@aux@segm{0}{0}{ACCRUAL}
\@writefile{lof}{\defcounter {refsection}{0}\relax }\@writefile{lof}{\contentsline {figure}{\numberline {3.1}{\ignorespaces Simplified view of our membership solution\relax }}{32}{figure.caption.32}}
\newlabel{fig:simplemembership}{{\M@TitleReference {3.1}{Simplified view of our membership solution\relax }}{32}{Simplified view of our membership solution\relax }{figure.caption.32}{}}
\@writefile{toc}{\defcounter {refsection}{0}\relax }\@writefile{toc}{\contentsline {subsection}{\numberline {3.3.2}Detailed view}{32}{subsection.3.3.2}}
\@writefile{lof}{\defcounter {refsection}{0}\relax }\@writefile{lof}{\contentsline {figure}{\numberline {3.2}{\ignorespaces Detailed view of our membership solution\relax }}{32}{figure.caption.33}}
\newlabel{fig:membership}{{\M@TitleReference {3.2}{Detailed view of our membership solution\relax }}{32}{Detailed view of our membership solution\relax }{figure.caption.33}{}}
\citation{Thicket}
\abx@aux@segm{0}{0}{Thicket}
\citation{CROUPIER}
\abx@aux@segm{0}{0}{CROUPIER}
\@writefile{toc}{\defcounter {refsection}{0}\relax }\@writefile{toc}{\contentsline {subsection}{\numberline {3.3.3}Overlay}{34}{subsection.3.3.3}}
\@writefile{lof}{\defcounter {refsection}{0}\relax }\@writefile{lof}{\contentsline {figure}{\numberline {3.3}{\ignorespaces Example of a graph resulted from established connection between nodes. Black lines connecting two nodes represent TCP connections resulted from HyParView's procedures. Grey lines represent TCP connections between nodes from different data centers. Red lines represent TCP connections between nodes when there is a firewall or NAT device in the way.\relax }}{34}{figure.caption.34}}
\newlabel{fig:overlay}{{\M@TitleReference {3.3}{Example of a graph resulted from established connection between nodes. Black lines connecting two nodes represent TCP connections resulted from HyParView's procedures. Grey lines represent TCP connections between nodes from different data centers. Red lines represent TCP connections between nodes when there is a firewall or NAT device in the way.\relax }}{34}{Example of a graph resulted from established connection between nodes. Black lines connecting two nodes represent TCP connections resulted from HyParView's procedures. Grey lines represent TCP connections between nodes from different data centers. Red lines represent TCP connections between nodes when there is a firewall or NAT device in the way.\relax }{figure.caption.34}{}}
\citation{GOSSIP20}
\abx@aux@segm{0}{0}{GOSSIP20}
\@writefile{toc}{\defcounter {refsection}{0}\relax }\@writefile{toc}{\contentsline {section}{\numberline {3.4}Multi-datacenter and Edge Membership Service}{35}{section.3.4}}
\@writefile{toc}{\defcounter {refsection}{0}\relax }\@writefile{toc}{\contentsline {subsection}{\numberline {3.4.1}Peer Sampling Service}{35}{subsection.3.4.1}}
\newlabel{pss}{{\M@TitleReference {3.4.1}{Peer Sampling Service}}{35}{Peer Sampling Service}{subsection.3.4.1}{}}
\@writefile{toc}{\defcounter {refsection}{0}\relax }\@writefile{toc}{\contentsline {subsubsection}{\numberline {3.4.1.1}HyParView --- summary}{36}{subsubsection.3.4.1.1}}
\@writefile{toc}{\defcounter {refsection}{0}\relax }\@writefile{toc}{\contentsline {subsubsection}{\numberline {3.4.1.2}Backup view}{36}{subsubsection.3.4.1.2}}
\newlabel{alg:agg}{{\M@TitleReference {1}{Backup view}}{37}{Backup view}{algocf.1}{}}
\@writefile{loa}{\defcounter {refsection}{0}\relax }\@writefile{loa}{\contentsline {algocf}{\numberline {1}{\ignorespaces Data structures\relax }}{37}{algocf.1}}
\newlabel{alg:structures}{{\M@TitleReference {1}{Backup view}}{37}{Backup view}{algocf.1}{}}
\@writefile{toc}{\defcounter {refsection}{0}\relax }\@writefile{toc}{\contentsline {subsubsection}{\numberline {3.4.1.3}Multiple data centers}{37}{subsubsection.3.4.1.3}}
\newlabel{sec:multiple}{{\M@TitleReference {3.4.1.3}{Multiple data centers}}{37}{Multiple data centers}{subsubsection.3.4.1.3}{}}
\@writefile{toc}{\defcounter {refsection}{0}\relax }\@writefile{toc}{\contentsline {subsection}{\numberline {3.4.2}Broadcast Tree}{38}{subsection.3.4.2}}
\@writefile{toc}{\defcounter {refsection}{0}\relax }\@writefile{toc}{\contentsline {subsubsection}{\numberline {3.4.2.1}Thicket --- summary}{38}{subsubsection.3.4.2.1}}
\newlabel{alg:agg}{{\M@TitleReference {2}{Multiple data centers}}{39}{Multiple data centers}{algocf.2}{}}
\@writefile{loa}{\defcounter {refsection}{0}\relax }\@writefile{loa}{\contentsline {algocf}{\numberline {2}{\ignorespaces Neighbor handlers\relax }}{39}{algocf.2}}
\newlabel{alg:neighbor}{{\M@TitleReference {2}{Multiple data centers}}{39}{Multiple data centers}{algocf.2}{}}
\@writefile{toc}{\defcounter {refsection}{0}\relax }\@writefile{toc}{\contentsline {subsubsection}{\numberline {3.4.2.2}\textit  {N} trees}{40}{subsubsection.3.4.2.2}}
\@writefile{toc}{\defcounter {refsection}{0}\relax }\@writefile{toc}{\contentsline {subsubsection}{\numberline {3.4.2.3}Join mechanism}{40}{subsubsection.3.4.2.3}}
\newlabel{sec:thicketjoin}{{\M@TitleReference {3.4.2.3}{Join mechanism}}{40}{Join mechanism}{subsubsection.3.4.2.3}{}}
\@writefile{toc}{\defcounter {refsection}{0}\relax }\@writefile{toc}{\contentsline {subsubsection}{\numberline {3.4.2.4}Local broadcast}{41}{subsubsection.3.4.2.4}}
\@writefile{toc}{\defcounter {refsection}{0}\relax }\@writefile{toc}{\contentsline {subsubsection}{\numberline {3.4.2.5}Dissemination}{42}{subsubsection.3.4.2.5}}
\@writefile{toc}{\defcounter {refsection}{0}\relax }\@writefile{toc}{\contentsline {subsubsection}{\numberline {3.4.2.6}Missing messages}{42}{subsubsection.3.4.2.6}}
\@writefile{toc}{\defcounter {refsection}{0}\relax }\@writefile{toc}{\contentsline {subsection}{\numberline {3.4.3}Global view}{42}{subsection.3.4.3}}
\newlabel{globalview}{{\M@TitleReference {3.4.3}{Global view}}{42}{Global view}{subsection.3.4.3}{}}
\@writefile{toc}{\defcounter {refsection}{0}\relax }\@writefile{toc}{\contentsline {subsubsection}{\numberline {3.4.3.1}Constructing a global view}{43}{subsubsection.3.4.3.1}}
\@writefile{toc}{\defcounter {refsection}{0}\relax }\@writefile{toc}{\contentsline {subsubsection}{\numberline {3.4.3.2}Closing connections}{44}{subsubsection.3.4.3.2}}
\citation{Bloomfilters}
\abx@aux@cite{Bloomfilters}
\abx@aux@segm{0}{0}{Bloomfilters}
\newlabel{alg:agg}{{\M@TitleReference {3}{Edge Service}}{45}{Edge Service}{algocf.3}{}}
\@writefile{loa}{\defcounter {refsection}{0}\relax }\@writefile{loa}{\contentsline {algocf}{\numberline {3}{\ignorespaces Data structures\relax }}{45}{algocf.3}}
\@writefile{toc}{\defcounter {refsection}{0}\relax }\@writefile{toc}{\contentsline {subsubsection}{\numberline {3.4.3.3}Shutdown mechanism}{45}{subsubsection.3.4.3.3}}
\@writefile{toc}{\defcounter {refsection}{0}\relax }\@writefile{toc}{\contentsline {subsection}{\numberline {3.4.4}Edge Service}{45}{subsection.3.4.4}}
\newlabel{sec:edgeservice}{{\M@TitleReference {3.4.4}{Edge Service}}{45}{Edge Service}{subsection.3.4.4}{}}
\@writefile{toc}{\defcounter {refsection}{0}\relax }\@writefile{toc}{\contentsline {paragraph}{Bloom filter}{46}{section*.35}}
\@writefile{toc}{\defcounter {refsection}{0}\relax }\@writefile{toc}{\contentsline {subsubsection}{\numberline {3.4.4.1}Join Mechanism}{46}{subsubsection.3.4.4.1}}
\newlabel{edgejoin}{{\M@TitleReference {3.4.4.1}{Join Mechanism}}{46}{Join Mechanism}{subsubsection.3.4.4.1}{}}
\newlabel{alg:agg}{{\M@TitleReference {4}{Join Mechanism}}{47}{Join Mechanism}{algocf.4}{}}
\@writefile{loa}{\defcounter {refsection}{0}\relax }\@writefile{loa}{\contentsline {algocf}{\numberline {4}{\ignorespaces Edge operations\relax }}{47}{algocf.4}}
\newlabel{alg:edge}{{\M@TitleReference {4}{Join Mechanism}}{47}{Join Mechanism}{algocf.4}{}}
\@writefile{toc}{\defcounter {refsection}{0}\relax }\@writefile{toc}{\contentsline {subsubsection}{\numberline {3.4.4.2}Dissemination}{47}{subsubsection.3.4.4.2}}
\@writefile{toc}{\defcounter {refsection}{0}\relax }\@writefile{toc}{\contentsline {subsection}{\numberline {3.4.5}Failure detection}{48}{subsection.3.4.5}}
\newlabel{failuredetection}{{\M@TitleReference {3.4.5}{Failure detection}}{48}{Failure detection}{subsection.3.4.5}{}}
\@writefile{toc}{\defcounter {refsection}{0}\relax }\@writefile{toc}{\contentsline {subsubsection}{\numberline {3.4.5.1}On HyParView and Thicket}{48}{subsubsection.3.4.5.1}}
\@writefile{toc}{\defcounter {refsection}{0}\relax }\@writefile{toc}{\contentsline {subsubsection}{\numberline {3.4.5.2}On the Edge Service}{49}{subsubsection.3.4.5.2}}
\citation{Satzger}
\abx@aux@cite{Satzger}
\abx@aux@segm{0}{0}{Satzger}
\@writefile{toc}{\defcounter {refsection}{0}\relax }\@writefile{toc}{\contentsline {subsubsection}{\numberline {3.4.5.3}Extensibility}{50}{subsubsection.3.4.5.3}}
\@writefile{toc}{\defcounter {refsection}{0}\relax }\@writefile{toc}{\contentsline {section}{\numberline {3.5}API}{50}{section.3.5}}
\@writefile{toc}{\defcounter {refsection}{0}\relax }\@writefile{toc}{\contentsline {paragraph}{\textit  {IPayload}}{51}{section*.36}}
\@writefile{toc}{\defcounter {refsection}{0}\relax }\@writefile{toc}{\contentsline {paragraph}{\textit  {BroadcastServiceClient<IPayload>}}{51}{section*.37}}
\@writefile{toc}{\defcounter {refsection}{0}\relax }\@writefile{toc}{\contentsline {section}{\numberline {3.6}Summary}{51}{section.3.6}}
\@writefile{lof}{\defcounter {refsection}{0}\relax }\@writefile{lof}{\addvspace {10pt}}
\@writefile{lot}{\defcounter {refsection}{0}\relax }\@writefile{lot}{\addvspace {10pt}}
\@writefile{toc}{\defcounter {refsection}{0}\relax }\@writefile{toc}{\contentsline {chapter}{\chapternumberline {4}Evaluation}{53}{chapter.4}}
\@writefile{loa}{\defcounter {refsection}{0}\relax }\@writefile{loa}{\addvspace {10\p@ }}
\newlabel{cha:evaluation}{{\M@TitleReference {4}{Evaluation}}{53}{Evaluation}{chapter.4}{}}
\@writefile{toc}{\defcounter {refsection}{0}\relax }\@writefile{toc}{\contentsline {section}{\numberline {4.1}Experimental work}{53}{section.4.1}}
\@writefile{toc}{\defcounter {refsection}{0}\relax }\@writefile{toc}{\contentsline {subsection}{\numberline {4.1.1}Experimental setup}{53}{subsection.4.1.1}}
\@writefile{toc}{\defcounter {refsection}{0}\relax }\@writefile{toc}{\contentsline {subsection}{\numberline {4.1.2}Multi-data center}{54}{subsection.4.1.2}}
\@writefile{toc}{\defcounter {refsection}{0}\relax }\@writefile{toc}{\contentsline {subsubsection}{\numberline {4.1.2.1}Open connections}{54}{subsubsection.4.1.2.1}}
\@writefile{lof}{\defcounter {refsection}{0}\relax }\@writefile{lof}{\contentsline {figure}{\numberline {4.1}{\ignorespaces Open TCP connections through time in seed nodes\relax }}{55}{figure.caption.38}}
\newlabel{fig:seedconnections}{{\M@TitleReference {4.1}{Open TCP connections through time in seed nodes\relax }}{55}{Open TCP connections through time in seed nodes\relax }{figure.caption.38}{}}
\@writefile{lof}{\defcounter {refsection}{0}\relax }\@writefile{lof}{\contentsline {figure}{\numberline {4.2}{\ignorespaces Open TCP connections through time in non-seed nodes\relax }}{55}{figure.caption.39}}
\newlabel{fig:commonconnections}{{\M@TitleReference {4.2}{Open TCP connections through time in non-seed nodes\relax }}{55}{Open TCP connections through time in non-seed nodes\relax }{figure.caption.39}{}}
\@writefile{lof}{\defcounter {refsection}{0}\relax }\@writefile{lof}{\contentsline {figure}{\numberline {4.3}{\ignorespaces Messages sent per second in seed nodes\relax }}{56}{figure.caption.40}}
\newlabel{fig:seedmsg}{{\M@TitleReference {4.3}{Messages sent per second in seed nodes\relax }}{56}{Messages sent per second in seed nodes\relax }{figure.caption.40}{}}
\@writefile{lof}{\defcounter {refsection}{0}\relax }\@writefile{lof}{\contentsline {figure}{\numberline {4.4}{\ignorespaces Messages sent per second in non-seed nodes\relax }}{56}{figure.caption.41}}
\newlabel{fig:commonmsg}{{\M@TitleReference {4.4}{Messages sent per second in non-seed nodes\relax }}{56}{Messages sent per second in non-seed nodes\relax }{figure.caption.41}{}}
\@writefile{toc}{\defcounter {refsection}{0}\relax }\@writefile{toc}{\contentsline {subsubsection}{\numberline {4.1.2.2}Messages sent}{56}{subsubsection.4.1.2.2}}
\@writefile{lot}{\defcounter {refsection}{0}\relax }\@writefile{lot}{\contentsline {table}{\numberline {4.1}{\ignorespaces Times (s) for global view construction when joining node\relax }}{57}{table.caption.42}}
\newlabel{table:jointimes}{{\M@TitleReference {4.1}{Times (s) for global view construction when joining node\relax }}{57}{Times (s) for global view construction when joining node\relax }{table.caption.42}{}}
\@writefile{toc}{\defcounter {refsection}{0}\relax }\@writefile{toc}{\contentsline {subsubsection}{\numberline {4.1.2.3}Join}{57}{subsubsection.4.1.2.3}}
\newlabel{sec:jointest}{{\M@TitleReference {4.1.2.3}{Join}}{57}{Join}{subsubsection.4.1.2.3}{}}
\@writefile{toc}{\defcounter {refsection}{0}\relax }\@writefile{toc}{\contentsline {subsubsection}{\numberline {4.1.2.4}Failure detection and network partitions}{58}{subsubsection.4.1.2.4}}
\@writefile{lof}{\defcounter {refsection}{0}\relax }\@writefile{lof}{\contentsline {figure}{\numberline {4.5}{\ignorespaces Number of live nodes from the point of view of one node\relax }}{59}{figure.caption.43}}
\newlabel{fig:partition}{{\M@TitleReference {4.5}{Number of live nodes from the point of view of one node\relax }}{59}{Number of live nodes from the point of view of one node\relax }{figure.caption.43}{}}
\@writefile{toc}{\defcounter {refsection}{0}\relax }\@writefile{toc}{\contentsline {paragraph}{}{59}{section*.44}}
\@writefile{toc}{\defcounter {refsection}{0}\relax }\@writefile{toc}{\contentsline {subsection}{\numberline {4.1.3}Edge Scenario}{59}{subsection.4.1.3}}
\@writefile{toc}{\defcounter {refsection}{0}\relax }\@writefile{toc}{\contentsline {subsubsection}{\numberline {4.1.3.1}Experimental setup}{59}{subsubsection.4.1.3.1}}
\@writefile{lof}{\defcounter {refsection}{0}\relax }\@writefile{lof}{\contentsline {figure}{\numberline {4.6}{\ignorespaces Initial setup for edge tests\relax }}{60}{figure.caption.45}}
\newlabel{fig:experiment}{{\M@TitleReference {4.6}{Initial setup for edge tests\relax }}{60}{Initial setup for edge tests\relax }{figure.caption.45}{}}
\@writefile{toc}{\defcounter {refsection}{0}\relax }\@writefile{toc}{\contentsline {subsubsection}{\numberline {4.1.3.2}Join}{60}{subsubsection.4.1.3.2}}
\@writefile{toc}{\defcounter {refsection}{0}\relax }\@writefile{toc}{\contentsline {subsubsection}{\numberline {4.1.3.3}Latency and Failures}{61}{subsubsection.4.1.3.3}}
\@writefile{toc}{\defcounter {refsection}{0}\relax }\@writefile{toc}{\contentsline {subsubsection}{\numberline {4.1.3.4}Impact of membership changes in edge connections}{61}{subsubsection.4.1.3.4}}
\@writefile{lof}{\defcounter {refsection}{0}\relax }\@writefile{lof}{\contentsline {figure}{\numberline {4.7}{\ignorespaces Latency in the communication to a contact node\relax }}{62}{figure.caption.46}}
\newlabel{fig:joinchurn}{{\M@TitleReference {4.7}{Latency in the communication to a contact node\relax }}{62}{Latency in the communication to a contact node\relax }{figure.caption.46}{}}
\@writefile{toc}{\defcounter {refsection}{0}\relax }\@writefile{toc}{\contentsline {section}{\numberline {4.2}Application example}{62}{section.4.2}}
\newlabel{sec:twitter}{{\M@TitleReference {4.2}{Application example}}{62}{Application example}{section.4.2}{}}
\@writefile{toc}{\defcounter {refsection}{0}\relax }\@writefile{toc}{\contentsline {subsection}{\numberline {4.2.1}Architecture}{62}{subsection.4.2.1}}
\@writefile{toc}{\defcounter {refsection}{0}\relax }\@writefile{toc}{\contentsline {subsection}{\numberline {4.2.2}API usage}{63}{subsection.4.2.2}}
\@writefile{toc}{\defcounter {refsection}{0}\relax }\@writefile{toc}{\contentsline {subsection}{\numberline {4.2.3}Correctness}{63}{subsection.4.2.3}}
\@writefile{toc}{\defcounter {refsection}{0}\relax }\@writefile{toc}{\contentsline {subsection}{\numberline {4.2.4}Improvements}{64}{subsection.4.2.4}}
\@writefile{toc}{\defcounter {refsection}{0}\relax }\@writefile{toc}{\contentsline {section}{\numberline {4.3}Discussion}{65}{section.4.3}}
\@writefile{lof}{\defcounter {refsection}{0}\relax }\@writefile{lof}{\addvspace {10pt}}
\@writefile{lot}{\defcounter {refsection}{0}\relax }\@writefile{lot}{\addvspace {10pt}}
\@writefile{toc}{\defcounter {refsection}{0}\relax }\@writefile{toc}{\contentsline {chapter}{\chapternumberline {5}Conclusion}{67}{chapter.5}}
\@writefile{loa}{\defcounter {refsection}{0}\relax }\@writefile{loa}{\addvspace {10\p@ }}
\newlabel{cha:conclusion}{{\M@TitleReference {5}{Conclusion}}{67}{Conclusion}{chapter.5}{}}
\@writefile{toc}{\defcounter {refsection}{0}\relax }\@writefile{toc}{\contentsline {section}{\numberline {5.1}Discussion}{67}{section.5.1}}
\@writefile{toc}{\defcounter {refsection}{0}\relax }\@writefile{toc}{\contentsline {section}{\numberline {5.2}Future work}{68}{section.5.2}}
\@writefile{toc}{\defcounter {refsection}{0}\relax }\@writefile{toc}{\contentsline {chapter}{Bibliography}{69}{section*.48}}
\abx@aux@number{61}{Aguilera97heartbeat:a}{0}{nyt/global//global/global}{1}
\abx@aux@number{62}{Bloomfilters}{0}{nyt/global//global/global}{2}
\abx@aux@number{63}{Brown:TREE}{0}{nyt/global//global/global}{3}
\abx@aux@number{64}{GOSSIP20}{0}{nyt/global//global/global}{4}
\abx@aux@number{65}{Castro}{0}{nyt/global//global/global}{5}
\abx@aux@number{66}{Chandra}{0}{nyt/global//global/global}{6}
\abx@aux@number{67}{WeiChen}{0}{nyt/global//global/global}{7}
\abx@aux@number{68}{CONSUL}{0}{nyt/global//global/global}{8}
\abx@aux@number{69}{LIFEGUARD}{0}{nyt/global//global/global}{9}
\abx@aux@number{70}{SWIM}{0}{nyt/global//global/global}{10}
\abx@aux@number{71}{DAH}{0}{nyt/global//global/global}{11}
\abx@aux@number{72}{CROUPIER}{0}{nyt/global//global/global}{12}
\abx@aux@number{73}{Snitching}{0}{nyt/global//global/global}{13}
\abx@aux@number{74}{Eugster:2003:LPB:945506.945507}{0}{nyt/global//global/global}{14}
\abx@aux@number{75}{FailureDetectors}{0}{nyt/global//global/global}{15}
\abx@aux@number{76}{Thicket}{0}{nyt/global//global/global}{16}
\abx@aux@number{77}{Ganesh:2001:SPL:648089.747488}{0}{nyt/global//global/global}{17}
\abx@aux@number{78}{Gribble:2000:SDD:1251229.1251251}{0}{nyt/global//global/global}{18}
\abx@aux@number{79}{Gupta}{0}{nyt/global//global/global}{19}
\abx@aux@number{80}{HASHICORP}{0}{nyt/global//global/global}{20}
\abx@aux@number{81}{ACCRUAL}{0}{nyt/global//global/global}{21}
\abx@aux@number{82}{Brown}{0}{nyt/global//global/global}{22}
\abx@aux@number{83}{Jacobson}{0}{nyt/global//global/global}{23}
\abx@aux@number{84}{Jelasity:2009:TGF:1570533.1570626}{0}{nyt/global//global/global}{24}
\abx@aux@number{85}{Karger:1997:CHR:258533.258660}{0}{nyt/global//global/global}{25}
\abx@aux@number{86}{Relay}{0}{nyt/global//global/global}{26}
\abx@aux@number{87}{Kermarrec:2007:GDS:1317379.1317381}{0}{nyt/global//global/global}{27}
\abx@aux@number{88}{CASSANDRA}{0}{nyt/global//global/global}{28}
\abx@aux@number{89}{Leitao:BALANCING}{0}{nyt/global//global/global}{29}
\abx@aux@number{90}{Leitao:TESE}{0}{nyt/global//global/global}{30}
\abx@aux@number{91}{Leitao:PLUMTREE}{0}{nyt/global//global/global}{31}
\abx@aux@number{92}{Leitao:HPV}{0}{nyt/global//global/global}{32}
\abx@aux@number{93}{LCP+10}{0}{nyt/global//global/global}{33}
\abx@aux@number{94}{Leitao:XBOT}{0}{nyt/global//global/global}{34}
\abx@aux@number{95}{Partisan}{0}{nyt/global//global/global}{35}
\abx@aux@number{96}{Phan}{0}{nyt/global//global/global}{36}
\abx@aux@number{97}{Qiao}{0}{nyt/global//global/global}{37}
\abx@aux@number{98}{Scuttlebutt}{0}{nyt/global//global/global}{38}
\abx@aux@number{99}{Satzger}{0}{nyt/global//global/global}{39}
\abx@aux@number{100}{SERF}{0}{nyt/global//global/global}{40}
\abx@aux@number{101}{1258111}{0}{nyt/global//global/global}{41}
\abx@aux@number{102}{Edge}{0}{nyt/global//global/global}{42}
\abx@aux@number{103}{CYCLON}{0}{nyt/global//global/global}{43}
\abx@aux@refcontextdefaultsdone
\abx@aux@defaultrefcontext{0}{Aguilera97heartbeat:a}{nyt/global//global/global}
\abx@aux@defaultrefcontext{0}{Bloomfilters}{nyt/global//global/global}
\abx@aux@defaultrefcontext{0}{Brown:TREE}{nyt/global//global/global}
\abx@aux@defaultrefcontext{0}{GOSSIP20}{nyt/global//global/global}
\abx@aux@defaultrefcontext{0}{Castro}{nyt/global//global/global}
\abx@aux@defaultrefcontext{0}{Chandra}{nyt/global//global/global}
\abx@aux@defaultrefcontext{0}{WeiChen}{nyt/global//global/global}
\abx@aux@defaultrefcontext{0}{CONSUL}{nyt/global//global/global}
\abx@aux@defaultrefcontext{0}{LIFEGUARD}{nyt/global//global/global}
\abx@aux@defaultrefcontext{0}{SWIM}{nyt/global//global/global}
\abx@aux@defaultrefcontext{0}{DAH}{nyt/global//global/global}
\abx@aux@defaultrefcontext{0}{CROUPIER}{nyt/global//global/global}
\abx@aux@defaultrefcontext{0}{Snitching}{nyt/global//global/global}
\abx@aux@defaultrefcontext{0}{Eugster:2003:LPB:945506.945507}{nyt/global//global/global}
\abx@aux@defaultrefcontext{0}{FailureDetectors}{nyt/global//global/global}
\abx@aux@defaultrefcontext{0}{Thicket}{nyt/global//global/global}
\abx@aux@defaultrefcontext{0}{Ganesh:2001:SPL:648089.747488}{nyt/global//global/global}
\abx@aux@defaultrefcontext{0}{Gribble:2000:SDD:1251229.1251251}{nyt/global//global/global}
\abx@aux@defaultrefcontext{0}{Gupta}{nyt/global//global/global}
\abx@aux@defaultrefcontext{0}{HASHICORP}{nyt/global//global/global}
\abx@aux@defaultrefcontext{0}{ACCRUAL}{nyt/global//global/global}
\abx@aux@defaultrefcontext{0}{Brown}{nyt/global//global/global}
\abx@aux@defaultrefcontext{0}{Jacobson}{nyt/global//global/global}
\abx@aux@defaultrefcontext{0}{Jelasity:2009:TGF:1570533.1570626}{nyt/global//global/global}
\abx@aux@defaultrefcontext{0}{Karger:1997:CHR:258533.258660}{nyt/global//global/global}
\abx@aux@defaultrefcontext{0}{Relay}{nyt/global//global/global}
\abx@aux@defaultrefcontext{0}{Kermarrec:2007:GDS:1317379.1317381}{nyt/global//global/global}
\abx@aux@defaultrefcontext{0}{CASSANDRA}{nyt/global//global/global}
\abx@aux@defaultrefcontext{0}{Leitao:BALANCING}{nyt/global//global/global}
\abx@aux@defaultrefcontext{0}{Leitao:TESE}{nyt/global//global/global}
\abx@aux@defaultrefcontext{0}{Leitao:PLUMTREE}{nyt/global//global/global}
\abx@aux@defaultrefcontext{0}{Leitao:HPV}{nyt/global//global/global}
\abx@aux@defaultrefcontext{0}{LCP+10}{nyt/global//global/global}
\abx@aux@defaultrefcontext{0}{Leitao:XBOT}{nyt/global//global/global}
\abx@aux@defaultrefcontext{0}{Partisan}{nyt/global//global/global}
\abx@aux@defaultrefcontext{0}{Phan}{nyt/global//global/global}
\abx@aux@defaultrefcontext{0}{Qiao}{nyt/global//global/global}
\abx@aux@defaultrefcontext{0}{Scuttlebutt}{nyt/global//global/global}
\abx@aux@defaultrefcontext{0}{Satzger}{nyt/global//global/global}
\abx@aux@defaultrefcontext{0}{SERF}{nyt/global//global/global}
\abx@aux@defaultrefcontext{0}{1258111}{nyt/global//global/global}
\abx@aux@defaultrefcontext{0}{Edge}{nyt/global//global/global}
\abx@aux@defaultrefcontext{0}{CYCLON}{nyt/global//global/global}
\memsetcounter{lastsheet}{88}
\memsetcounter{lastpage}{74}
