This is BibTeX, Version 0.99d (TeX Live 2019/dev/Debian)
Capacity: max_strings=100000, hash_size=100000, hash_prime=85009
The top-level auxiliary file: template.aux
The style file: biblatex.bst
Reallocated glb_str_ptr (elt_size=4) to 20 items from 10.
Reallocated global_strs (elt_size=20001) to 20 items from 10.
Reallocated glb_str_end (elt_size=4) to 20 items from 10.
Reallocated singl_function (elt_size=4) to 100 items from 50.
Reallocated singl_function (elt_size=4) to 100 items from 50.
Reallocated singl_function (elt_size=4) to 100 items from 50.
Reallocated wiz_functions (elt_size=4) to 6000 items from 3000.
Reallocated singl_function (elt_size=4) to 100 items from 50.
Reallocated singl_function (elt_size=4) to 100 items from 50.
Reallocated singl_function (elt_size=4) to 100 items from 50.
Reallocated singl_function (elt_size=4) to 100 items from 50.
Reallocated singl_function (elt_size=4) to 100 items from 50.
Reallocated singl_function (elt_size=4) to 100 items from 50.
Reallocated singl_function (elt_size=4) to 100 items from 50.
Reallocated field_info (elt_size=4) to 11116 items from 5000.
Database file #1: template-blx.bib
Database file #2: bibliography.bib
Biblatex version: 3.8
Reallocated wiz_functions (elt_size=4) to 9000 items from 6000.
Reallocated singl_function (elt_size=4) to 100 items from 50.
You've used 44 entries,
            6268 wiz_defined-function locations,
            1553 strings with 26359 characters,
and the built_in function-call counts, 259844 in all, are:
= -- 18350
> -- 4415
< -- 1564
+ -- 6677
- -- 1517
* -- 18789
:= -- 25410
add.period$ -- 0
call.type$ -- 44
change.case$ -- 944
chr.to.int$ -- 82
cite$ -- 86
duplicate$ -- 29417
empty$ -- 24217
format.name$ -- 2756
if$ -- 53109
int.to.chr$ -- 0
int.to.str$ -- 124
missing$ -- 0
newline$ -- 1709
num.names$ -- 2153
pop$ -- 14987
preamble$ -- 1
purify$ -- 1186
quote$ -- 0
skip$ -- 7740
stack$ -- 0
substring$ -- 29460
swap$ -- 7516
text.length$ -- 1090
text.prefix$ -- 43
top$ -- 1
type$ -- 1481
warning$ -- 0
while$ -- 3310
width$ -- 0
write$ -- 1666
